[
  {
    "id": "YA-818",
    "source": "Spain",
    "departureDate": "2018-07-15T03:01:30.8141747+03:00",
    "destination": "Bhutan",
    "arrivalDate": "2018-07-16T01:01:30.8141747+03:00",
    "tickets": [
      {
        "id": 1,
        "price": 324.61,
        "flightId": "YA-818"
      },
      {
        "id": 2,
        "price": 625.47,
        "flightId": "YA-818"
      },
      {
        "id": 3,
        "price": 712.93,
        "flightId": "YA-818"
      },
      {
        "id": 4,
        "price": 438.16,
        "flightId": "YA-818"
      },
      {
        "id": 5,
        "price": 425.50,
        "flightId": "YA-818"
      },
      {
        "id": 6,
        "price": 425.16,
        "flightId": "YA-818"
      },
      {
        "id": 7,
        "price": 442.96,
        "flightId": "YA-818"
      },
      {
        "id": 8,
        "price": 149.33,
        "flightId": "YA-818"
      },
      {
        "id": 9,
        "price": 406.53,
        "flightId": "YA-818"
      },
      {
        "id": 10,
        "price": 715.21,
        "flightId": "YA-818"
      }
    ]
  },
  {
    "id": "HF-022",
    "source": "Palestinian Territory",
    "departureDate": "2018-07-14T12:54:24.4186665+03:00",
    "destination": "Egypt",
    "arrivalDate": "2018-07-15T06:54:24.4186665+03:00",
    "tickets": [
      {
        "id": 11,
        "price": 525.28,
        "flightId": "HF-022"
      },
      {
        "id": 12,
        "price": 392.49,
        "flightId": "HF-022"
      },
      {
        "id": 13,
        "price": 174.89,
        "flightId": "HF-022"
      },
      {
        "id": 14,
        "price": 102.65,
        "flightId": "HF-022"
      },
      {
        "id": 15,
        "price": 492.91,
        "flightId": "HF-022"
      },
      {
        "id": 16,
        "price": 712.81,
        "flightId": "HF-022"
      },
      {
        "id": 17,
        "price": 344.64,
        "flightId": "HF-022"
      },
      {
        "id": 18,
        "price": 192.79,
        "flightId": "HF-022"
      },
      {
        "id": 19,
        "price": 386.98,
        "flightId": "HF-022"
      },
      {
        "id": 20,
        "price": 557.47,
        "flightId": "HF-022"
      }
    ]
  },
  {
    "id": "YQ-240",
    "source": "Antigua and Barbuda",
    "departureDate": "2018-07-14T17:36:03.2632122+03:00",
    "destination": "Benin",
    "arrivalDate": "2018-07-15T06:36:03.2632122+03:00",
    "tickets": [
      {
        "id": 21,
        "price": 451.15,
        "flightId": "YQ-240"
      },
      {
        "id": 22,
        "price": 924.06,
        "flightId": "YQ-240"
      },
      {
        "id": 23,
        "price": 444.29,
        "flightId": "YQ-240"
      },
      {
        "id": 24,
        "price": 581.26,
        "flightId": "YQ-240"
      },
      {
        "id": 25,
        "price": 500.05,
        "flightId": "YQ-240"
      },
      {
        "id": 26,
        "price": 769.23,
        "flightId": "YQ-240"
      },
      {
        "id": 27,
        "price": 943.36,
        "flightId": "YQ-240"
      },
      {
        "id": 28,
        "price": 686.07,
        "flightId": "YQ-240"
      },
      {
        "id": 29,
        "price": 839.01,
        "flightId": "YQ-240"
      },
      {
        "id": 30,
        "price": 211.44,
        "flightId": "YQ-240"
      }
    ]
  },
  {
    "id": "PD-756",
    "source": "Tuvalu",
    "departureDate": "2018-07-15T02:04:15.6534366+03:00",
    "destination": "Palestinian Territory",
    "arrivalDate": "2018-07-16T01:04:15.6534366+03:00",
    "tickets": [
      {
        "id": 31,
        "price": 180.52,
        "flightId": "PD-756"
      },
      {
        "id": 32,
        "price": 350.17,
        "flightId": "PD-756"
      },
      {
        "id": 33,
        "price": 762.35,
        "flightId": "PD-756"
      },
      {
        "id": 34,
        "price": 849.06,
        "flightId": "PD-756"
      },
      {
        "id": 35,
        "price": 760.02,
        "flightId": "PD-756"
      },
      {
        "id": 36,
        "price": 704.10,
        "flightId": "PD-756"
      },
      {
        "id": 37,
        "price": 918.95,
        "flightId": "PD-756"
      },
      {
        "id": 38,
        "price": 702.06,
        "flightId": "PD-756"
      },
      {
        "id": 39,
        "price": 285.40,
        "flightId": "PD-756"
      },
      {
        "id": 40,
        "price": 328.22,
        "flightId": "PD-756"
      }
    ]
  },
  {
    "id": "JT-058",
    "source": "Martinique",
    "departureDate": "2018-07-15T23:16:37.9899338+03:00",
    "destination": "Paraguay",
    "arrivalDate": "2018-07-16T16:16:37.9899338+03:00",
    "tickets": [
      {
        "id": 41,
        "price": 769.45,
        "flightId": "JT-058"
      },
      {
        "id": 42,
        "price": 658.57,
        "flightId": "JT-058"
      },
      {
        "id": 43,
        "price": 353.78,
        "flightId": "JT-058"
      },
      {
        "id": 44,
        "price": 275.54,
        "flightId": "JT-058"
      },
      {
        "id": 45,
        "price": 910.95,
        "flightId": "JT-058"
      },
      {
        "id": 46,
        "price": 827.24,
        "flightId": "JT-058"
      },
      {
        "id": 47,
        "price": 925.71,
        "flightId": "JT-058"
      },
      {
        "id": 48,
        "price": 738.03,
        "flightId": "JT-058"
      },
      {
        "id": 49,
        "price": 819.74,
        "flightId": "JT-058"
      },
      {
        "id": 50,
        "price": 196.88,
        "flightId": "JT-058"
      }
    ]
  },
  {
    "id": "NQ-560",
    "source": "Botswana",
    "departureDate": "2018-07-14T10:39:50.552681+03:00",
    "destination": "Samoa",
    "arrivalDate": "2018-07-15T07:39:50.552681+03:00",
    "tickets": [
      {
        "id": 51,
        "price": 850.28,
        "flightId": "NQ-560"
      },
      {
        "id": 52,
        "price": 341.30,
        "flightId": "NQ-560"
      },
      {
        "id": 53,
        "price": 500.67,
        "flightId": "NQ-560"
      },
      {
        "id": 54,
        "price": 610.79,
        "flightId": "NQ-560"
      },
      {
        "id": 55,
        "price": 790.79,
        "flightId": "NQ-560"
      },
      {
        "id": 56,
        "price": 873.08,
        "flightId": "NQ-560"
      },
      {
        "id": 57,
        "price": 157.98,
        "flightId": "NQ-560"
      },
      {
        "id": 58,
        "price": 263.43,
        "flightId": "NQ-560"
      },
      {
        "id": 59,
        "price": 750.13,
        "flightId": "NQ-560"
      },
      {
        "id": 60,
        "price": 164.75,
        "flightId": "NQ-560"
      }
    ]
  },
  {
    "id": "ZY-129",
    "source": "Republic of Korea",
    "departureDate": "2018-07-16T01:50:49.1749091+03:00",
    "destination": "Tuvalu",
    "arrivalDate": "2018-07-17T00:50:49.1749091+03:00",
    "tickets": [
      {
        "id": 61,
        "price": 778.40,
        "flightId": "ZY-129"
      },
      {
        "id": 62,
        "price": 280.92,
        "flightId": "ZY-129"
      },
      {
        "id": 63,
        "price": 882.32,
        "flightId": "ZY-129"
      },
      {
        "id": 64,
        "price": 188.52,
        "flightId": "ZY-129"
      },
      {
        "id": 65,
        "price": 749.19,
        "flightId": "ZY-129"
      },
      {
        "id": 66,
        "price": 739.16,
        "flightId": "ZY-129"
      },
      {
        "id": 67,
        "price": 288.38,
        "flightId": "ZY-129"
      },
      {
        "id": 68,
        "price": 512.09,
        "flightId": "ZY-129"
      },
      {
        "id": 69,
        "price": 568.15,
        "flightId": "ZY-129"
      },
      {
        "id": 70,
        "price": 774.54,
        "flightId": "ZY-129"
      }
    ]
  },
  {
    "id": "JK-778",
    "source": "Kyrgyz Republic",
    "departureDate": "2018-07-14T10:27:40.6332977+03:00",
    "destination": "Armenia",
    "arrivalDate": "2018-07-15T01:27:40.6332977+03:00",
    "tickets": [
      {
        "id": 71,
        "price": 769.26,
        "flightId": "JK-778"
      },
      {
        "id": 72,
        "price": 762.28,
        "flightId": "JK-778"
      },
      {
        "id": 73,
        "price": 987.90,
        "flightId": "JK-778"
      },
      {
        "id": 74,
        "price": 754.99,
        "flightId": "JK-778"
      },
      {
        "id": 75,
        "price": 212.97,
        "flightId": "JK-778"
      },
      {
        "id": 76,
        "price": 622.07,
        "flightId": "JK-778"
      },
      {
        "id": 77,
        "price": 573.81,
        "flightId": "JK-778"
      },
      {
        "id": 78,
        "price": 363.48,
        "flightId": "JK-778"
      },
      {
        "id": 79,
        "price": 714.62,
        "flightId": "JK-778"
      },
      {
        "id": 80,
        "price": 579.43,
        "flightId": "JK-778"
      }
    ]
  },
  {
    "id": "DQ-680",
    "source": "New Caledonia",
    "departureDate": "2018-07-14T21:11:08.3772149+03:00",
    "destination": "Austria",
    "arrivalDate": "2018-07-15T19:11:08.3772149+03:00",
    "tickets": [
      {
        "id": 81,
        "price": 684.70,
        "flightId": "DQ-680"
      },
      {
        "id": 82,
        "price": 645.89,
        "flightId": "DQ-680"
      },
      {
        "id": 83,
        "price": 695.28,
        "flightId": "DQ-680"
      },
      {
        "id": 84,
        "price": 975.58,
        "flightId": "DQ-680"
      },
      {
        "id": 85,
        "price": 725.23,
        "flightId": "DQ-680"
      },
      {
        "id": 86,
        "price": 630.94,
        "flightId": "DQ-680"
      },
      {
        "id": 87,
        "price": 284.57,
        "flightId": "DQ-680"
      },
      {
        "id": 88,
        "price": 401.02,
        "flightId": "DQ-680"
      },
      {
        "id": 89,
        "price": 448.18,
        "flightId": "DQ-680"
      },
      {
        "id": 90,
        "price": 515.11,
        "flightId": "DQ-680"
      }
    ]
  },
  {
    "id": "HH-181",
    "source": "Andorra",
    "departureDate": "2018-07-14T12:20:03.4173639+03:00",
    "destination": "Burundi",
    "arrivalDate": "2018-07-15T12:20:03.4173639+03:00",
    "tickets": [
      {
        "id": 91,
        "price": 265.35,
        "flightId": "HH-181"
      },
      {
        "id": 92,
        "price": 924.89,
        "flightId": "HH-181"
      },
      {
        "id": 93,
        "price": 797.47,
        "flightId": "HH-181"
      },
      {
        "id": 94,
        "price": 988.72,
        "flightId": "HH-181"
      },
      {
        "id": 95,
        "price": 669.95,
        "flightId": "HH-181"
      },
      {
        "id": 96,
        "price": 764.62,
        "flightId": "HH-181"
      },
      {
        "id": 97,
        "price": 795.84,
        "flightId": "HH-181"
      },
      {
        "id": 98,
        "price": 883.92,
        "flightId": "HH-181"
      },
      {
        "id": 99,
        "price": 789.11,
        "flightId": "HH-181"
      },
      {
        "id": 100,
        "price": 304.04,
        "flightId": "HH-181"
      }
    ]
  }
]